Data Analysis 1: dplyr and UNC departments
…
Assignment

Question 1

Return a data frame with columns: name, dept, age,totalsal

select(data, name, dept, age, totalsal)

## # A tibble: 12,287 x 4
##                         name                          dept   age totalsal
##                        <chr>                         <chr> <int>    <int>
##  1            AARON, NANCY G             Romance Languages    55    46350
##  2     ABARBANELL, JEFFERY S Kenan-Flagler Business School    57   173000
##  3              ABARE, BETSY  Institute of Marine Sciences    54    38170
##  4            ABATE, AARON B       Medicine Administration    29    50070
##  5        ABATEMARCO, JODI M           School of Education    35    41696
##  6 ABBOTT-LUNSFORD, SHELBY L       Medicine Administration    41    61000
##  7        ABBOTTS, WILLIAM C                       Biology    62    41707
##  8         ABDOULAYI, SARA M    Carolina Population Center    36    80227
##  9           ABDULLAH, LUBNA    Cys Fibrosis/Pulmonary Res    64    55803
## 10                ABE, PAIGE         Housing Res Education    26    32889
## # ... with 12,277 more rows

Return a data frame with columns: statesal, nonstsal,totalsal using one of the select_helpers functions. If needed, google select_helpers in R.

select(data, contains("sal"))

## # A tibble: 12,287 x 3
##    statesal nonstsal totalsal
##       <int>    <int>    <int>
##  1    46350        0    46350
##  2   173000        0   173000
##  3        0    38170    38170
##  4        0    50070    50070
##  5    41696        0    41696
##  6    56588     4412    61000
##  7    41707        0    41707
##  8        0    80227    80227
##  9        0    55803    55803
## 10        0    32889    32889
## # ... with 12,277 more rows
…
Question 6

Create a data frame called dept_summary whose rows are the departments and whose columns are: department size, mean department salary, median department salary, and maximum salary (using totalsal for salary).

dept_summary <- group_by(data, dept) %>%summarise(dept_size = n(), mean_dept_totalsal = mean(totalsal), med_dept_totalsal = median(totalsal), max_dept_totalsal = max(totalsal))

Order the departments by highest mean salary and print the 10 highest paid departments.

dept_summary %>%arrange(desc(mean_dept_totalsal)) %>%select(dept)

## # A tibble: 304 x 1
##                        dept
##                       <chr>
##  1             Neurosurgery
##  2                  Provost
##  3                  Urology
##  4             Orthopaedics
##  5                  Surgery
##  6           Anesthesiology
##  7       Radiation Oncology
##  8          Carolina Counts
##  9                Radiology
## 10 Office of the Chancellor
## # ... with 294 more rows

Order the departments by highest median salary and print the 10 highest paid departments.

dept_summary %>%arrange(desc(med_dept_totalsal)) %>%select(dept)

## # A tibble: 304 x 1
##                        dept
##                       <chr>
##  1             Neurosurgery
##  2                  Provost
##  3             Orthopaedics
##  4                  Urology
##  5           Anesthesiology
##  6          Carolina Counts
##  7       Radiation Oncology
##  8                  Surgery
##  9 University Ombuds Office
## 10    Ath Basketball Office
## # ... with 294 more rows
…
count(dept_summary, dept_size >= 10)

## # A tibble: 2 x 2
##   `dept_size >= 10`     n
##               <lgl> <int>
## 1             FALSE   110
## 2              TRUE   194

Question 8

Which department hired the most people in 2010? Hint: you probably have to modify hiredate.

mutate(data, hiredate = parse_datetime(hiredate, "%Y%m%d")) %>% filter(year(hiredate) == 2010) %>%group_by(dept) %>%summarise(N = n()) %>%arrange(desc(N))

## # A tibble: 169 x 2
##                             dept     N
##                            <chr> <int>
##  1                      Medicine    37
##  2   Comprehensive Cancer Center    36
##  3    FPG Child Development Inst    19
##  4    Laboratory Animal Medicine    19
##  5                    Psychiatry    19
##  6            School of Pharmacy    14
##  7       Medicine Administration    13
##  8  Information Technology Svcs.    12
##  9 Kenan-Flagler Business School    12
## 10         Housekeeping Services    11
## # ... with 159 more rows

In 2010, the department of medicine hired the most people.

Question 9

Make a list of all the department names and sort this list alphabetically. What is the 42nd department in this list?

select(data, dept) %>% distinct(dept) %>% arrange(dept) %>% slice()

## # A tibble: 304 x 1
##                              dept
##                             <chr>
##  1 Acad Sup Prog Student-Athletes
##  2              Academic Advising
##  3            Accounting Services
##  4             Ackland Art Museum
##  5                     Admissions
##  6         African Studies Center
##  7  African, Afri-Amer & Diaspora
##  8     AHEC Support-Comm Med Care
##  9                        Airport
## 10         Alcohol Studies Center
## # ... with 294 more rows
…
