Open Question
…
what is the upshot of the figure (figure blah shows that there is a strong relationship between foo and bar)

write an explanation of your findings

a couple paragraphs

use proper grammar

your findings should be clear

Including Plots

You can also embed plots, for example:

## # A tibble: 121 x 14
## # Groups:   dept [1]
##                  name campus    dept                     position
##                 <chr>  <chr>   <chr>                        <chr>
##  1     ADAMS, SASHA D UNC-CH Surgery          Assistant Professor
##  2 ADAMSON, WILLIAM T UNC-CH Surgery     Clinical Associate Prof.
##  3       ALGER, AMY R UNC-CH Surgery Clinical Assistant Professor
##  4 ANDERSON, CURTIS A UNC-CH Surgery           Clinical Professor
##  5  AUGUSTINE, TERI L UNC-CH Surgery        Assistant to Chairman
##  6   AUSTIN, STACIE E UNC-CH Surgery    Admin. Support Specialist
##  7      BAKER, MARY L UNC-CH Surgery     Clinical Asst. Professor
##  8    BITAR, RAGHID S UNC-CH Surgery Clinical Assistant Professor
##  9  BLACKWELL, JOHN W UNC-CH Surgery          Research Technician
## 10       BROWN, TIA M UNC-CH Surgery    Admin. Support Specialist
## # ... with 111 more rows, and 10 more variables: exempt2 <chr>,
## #   employed <int>, hiredate <int>, fte <dbl>, status <chr>,
## #   stservyr <int>, statesal <int>, nonstsal <int>, totalsal <int>,
## #   age <int>
…
