10.23
…
20171023

Reading Read the pdf-file t-test refresher that has been placed on the resources page of Sakai. Our brief discussion of t-tests will mostly consist of a couple of examples. If you remember t-tests well from STOR 155 or STOR 455, you can skip this reading.

Exercises - Pleaes consider this assignment to be seriously graded Attempt to do as much of this assignment as you can by next monday with no help from others. Then we will talk about it briefly at the end of class to see how everyone is doing.

1.A One downside of the least-squares model is that it is sensitive to unusual values because the distance incorporates a squared term. Fit a linear model to the simulated data below, and visualise the results. Rerun a few times to generate different simulated datasets. What do you notice about the model?

sim1a <- tibble(
  x = rep(1:10, each = 3),
  y = x * 2 + 8 + rt(length(x), df = 2)
)
sim1a

## # A tibble: 30 x 2
##        x        y
##    <int>    <dbl>
##  1     1  9.94480
##  2     1 12.82558
##  3     1 10.45266
##  4     2 14.00280
##  5     2 11.82765
##  6     2 11.77975
##  7     3 11.56276
##  8     3 13.96662
##  9     3 12.73965
## 10     4 16.00502
## # ... with 20 more rows
…
