11.6
…
model_matrix(sim3, mod_int)

## # A tibble: 120 x 8
##    `(Intercept)`    x1   x2b   x2c   x2d `x1:x2b` `x1:x2c` `x1:x2d`
##            <dbl> <dbl> <dbl> <dbl> <dbl>    <dbl>    <dbl>    <dbl>
##  1             1     1     0     0     0        0        0        0
##  2             1     1     0     0     0        0        0        0
##  3             1     1     0     0     0        0        0        0
##  4             1     1     1     0     0        1        0        0
##  5             1     1     1     0     0        1        0        0
##  6             1     1     1     0     0        1        0        0
##  7             1     1     0     1     0        0        1        0
##  8             1     1     0     1     0        0        1        0
##  9             1     1     0     1     0        0        1        0
## 10             1     1     0     0     1        0        0        1
## # ... with 110 more rows

model_matrix(sim3, mod_line)

## # A tibble: 120 x 5
##    `(Intercept)`    x1   x2b   x2c   x2d
##            <dbl> <dbl> <dbl> <dbl> <dbl>
##  1             1     1     0     0     0
##  2             1     1     0     0     0
##  3             1     1     0     0     0
##  4             1     1     1     0     0
##  5             1     1     1     0     0
##  6             1     1     1     0     0
##  7             1     1     0     1     0
##  8             1     1     0     1     0
##  9             1     1     0     1     0
## 10             1     1     0     0     1
## # ... with 110 more rows
…
